-------------------------------------------------------------------------------
Test set: com.example.Consultancy.ConsultancyApplicationTests
-------------------------------------------------------------------------------
Tests run: 1, Failures: 0, Errors: 0, Skipped: 0, Time elapsed: 19.835 s - in com.example.Consultancy.ConsultancyApplicationTests
